%YAML 1.1
%TAG !u! tag:unity3d.com,2011:
--- !u!1 &3583352148004340151
GameObject:
  m_ObjectHideFlags: 0
  m_CorrespondingSourceObject: {fileID: 0}
  m_PrefabInstance: {fileID: 0}
  m_PrefabAsset: {fileID: 0}
  serializedVersion: 6
  m_Component:
  - component: {fileID: 4546258483072712283}
  - component: {fileID: 3532554677459614573}
  - component: {fileID: 5258827297880220082}
  m_Layer: 0
  m_Name: Layer1
  m_TagString: Untagged
  m_Icon: {fileID: 0}
  m_NavMeshLayer: 0
  m_StaticEditorFlags: 0
  m_IsActive: 1
--- !u!4 &4546258483072712283
Transform:
  m_ObjectHideFlags: 0
  m_CorrespondingSourceObject: {fileID: 0}
  m_PrefabInstance: {fileID: 0}
  m_PrefabAsset: {fileID: 0}
  m_GameObject: {fileID: 3583352148004340151}
  serializedVersion: 2
  m_LocalRotation: {x: -0, y: -0, z: -0, w: 1}
  m_LocalPosition: {x: 0, y: 0, z: 0}
  m_LocalScale: {x: 1, y: 1, z: 1}
  m_ConstrainProportionsScale: 0
  m_Children: []
  m_Father: {fileID: 2762465969144247096}
  m_LocalEulerAnglesHint: {x: 0, y: 0, z: 0}
--- !u!1839735485 &3532554677459614573
Tilemap:
  m_ObjectHideFlags: 0
  m_CorrespondingSourceObject: {fileID: 0}
  m_PrefabInstance: {fileID: 0}
  m_PrefabAsset: {fileID: 0}
  m_GameObject: {fileID: 3583352148004340151}
  m_Enabled: 1
  m_Tiles:
  - first: {x: -2, y: -15, z: 0}
    second:
      serializedVersion: 2
      m_TileIndex: 112
      m_TileSpriteIndex: 112
      m_TileMatrixIndex: 0
      m_TileColorIndex: 0
      m_TileObjectToInstantiateIndex: 65535
      dummyAlignment: 0
      m_AllTileFlags: 1073741825
  - first: {x: -1, y: -15, z: 0}
    second:
      serializedVersion: 2
      m_TileIndex: 113
      m_TileSpriteIndex: 113
      m_TileMatrixIndex: 0
      m_TileColorIndex: 0
      m_TileObjectToInstantiateIndex: 65535
      dummyAlignment: 0
      m_AllTileFlags: 1073741825
  - first: {x: 0, y: -15, z: 0}
    second:
      serializedVersion: 2
      m_TileIndex: 114
      m_TileSpriteIndex: 114
      m_TileMatrixIndex: 0
      m_TileColorIndex: 0
      m_TileObjectToInstantiateIndex: 65535
      dummyAlignment: 0
      m_AllTileFlags: 1073741825
  - first: {x: 1, y: -15, z: 0}
    second:
      serializedVersion: 2
      m_TileIndex: 115
      m_TileSpriteIndex: 115
      m_TileMatrixIndex: 0
      m_TileColorIndex: 0
      m_TileObjectToInstantiateIndex: 65535
      dummyAlignment: 0
      m_AllTileFlags: 1073741825
  - first: {x: -2, y: -14, z: 0}
    second:
      serializedVersion: 2
      m_TileIndex: 104
      m_TileSpriteIndex: 104
      m_TileMatrixIndex: 0
      m_TileColorIndex: 0
      m_TileObjectToInstantiateIndex: 65535
      dummyAlignment: 0
      m_AllTileFlags: 1073741825
  - first: {x: -1, y: -14, z: 0}
    second:
      serializedVersion: 2
      m_TileIndex: 105
      m_TileSpriteIndex: 105
      m_TileMatrixIndex: 0
      m_TileColorIndex: 0
      m_TileObjectToInstantiateIndex: 65535
      dummyAlignment: 0
      m_AllTileFlags: 1073741825
  - first: {x: 0, y: -14, z: 0}
    second:
      serializedVersion: 2
      m_TileIndex: 106
      m_TileSpriteIndex: 106
      m_TileMatrixIndex: 0
      m_TileColorIndex: 0
      m_TileObjectToInstantiateIndex: 65535
      dummyAlignment: 0
      m_AllTileFlags: 1073741825
  - first: {x: 1, y: -14, z: 0}
    second:
      serializedVersion: 2
      m_TileIndex: 107
      m_TileSpriteIndex: 107
      m_TileMatrixIndex: 0
      m_TileColorIndex: 0
      m_TileObjectToInstantiateIndex: 65535
      dummyAlignment: 0
      m_AllTileFlags: 1073741825
  - first: {x: 2, y: -14, z: 0}
    second:
      serializedVersion: 2
      m_TileIndex: 108
      m_TileSpriteIndex: 108
      m_TileMatrixIndex: 0
      m_TileColorIndex: 0
      m_TileObjectToInstantiateIndex: 65535
      dummyAlignment: 0
      m_AllTileFlags: 1073741825
  - first: {x: 3, y: -14, z: 0}
    second:
      serializedVersion: 2
      m_TileIndex: 109
      m_TileSpriteIndex: 109
      m_TileMatrixIndex: 0
      m_TileColorIndex: 0
      m_TileObjectToInstantiateIndex: 65535
      dummyAlignment: 0
      m_AllTileFlags: 1073741825
  - first: {x: 4, y: -14, z: 0}
    second:
      serializedVersion: 2
      m_TileIndex: 110
      m_TileSpriteIndex: 110
      m_TileMatrixIndex: 0
      m_TileColorIndex: 0
      m_TileObjectToInstantiateIndex: 65535
      dummyAlignment: 0
      m_AllTileFlags: 1073741825
  - first: {x: 5, y: -14, z: 0}
    second:
      serializedVersion: 2
      m_TileIndex: 111
      m_TileSpriteIndex: 111
      m_TileMatrixIndex: 0
      m_TileColorIndex: 0
      m_TileObjectToInstantiateIndex: 65535
      dummyAlignment: 0
      m_AllTileFlags: 1073741825
  - first: {x: -2, y: -13, z: 0}
    second:
      serializedVersion: 2
      m_TileIndex: 96
      m_TileSpriteIndex: 96
      m_TileMatrixIndex: 0
      m_TileColorIndex: 0
      m_TileObjectToInstantiateIndex: 65535
      dummyAlignment: 0
      m_AllTileFlags: 1073741825
  - first: {x: -1, y: -13, z: 0}
    second:
      serializedVersion: 2
      m_TileIndex: 97
      m_TileSpriteIndex: 97
      m_TileMatrixIndex: 0
      m_TileColorIndex: 0
      m_TileObjectToInstantiateIndex: 65535
      dummyAlignment: 0
      m_AllTileFlags: 1073741825
  - first: {x: 0, y: -13, z: 0}
    second:
      serializedVersion: 2
      m_TileIndex: 98
      m_TileSpriteIndex: 98
      m_TileMatrixIndex: 0
      m_TileColorIndex: 0
      m_TileObjectToInstantiateIndex: 65535
      dummyAlignment: 0
      m_AllTileFlags: 1073741825
  - first: {x: 1, y: -13, z: 0}
    second:
      serializedVersion: 2
      m_TileIndex: 99
      m_TileSpriteIndex: 99
      m_TileMatrixIndex: 0
      m_TileColorIndex: 0
      m_TileObjectToInstantiateIndex: 65535
      dummyAlignment: 0
      m_AllTileFlags: 1073741825
  - first: {x: 2, y: -13, z: 0}
    second:
      serializedVersion: 2
      m_TileIndex: 100
      m_TileSpriteIndex: 100
      m_TileMatrixIndex: 0
      m_TileColorIndex: 0
      m_TileObjectToInstantiateIndex: 65535
      dummyAlignment: 0
      m_AllTileFlags: 1073741825
  - first: {x: 3, y: -13, z: 0}
    second:
      serializedVersion: 2
      m_TileIndex: 101
      m_TileSpriteIndex: 101
      m_TileMatrixIndex: 0
      m_TileColorIndex: 0
      m_TileObjectToInstantiateIndex: 65535
      dummyAlignment: 0
      m_AllTileFlags: 1073741825
  - first: {x: 4, y: -13, z: 0}
    second:
      serializedVersion: 2
      m_TileIndex: 102
      m_TileSpriteIndex: 102
      m_TileMatrixIndex: 0
      m_TileColorIndex: 0
      m_TileObjectToInstantiateIndex: 65535
      dummyAlignment: 0
      m_AllTileFlags: 1073741825
  - first: {x: 5, y: -13, z: 0}
    second:
      serializedVersion: 2
      m_TileIndex: 103
      m_TileSpriteIndex: 103
      m_TileMatrixIndex: 0
      m_TileColorIndex: 0
      m_TileObjectToInstantiateIndex: 65535
      dummyAlignment: 0
      m_AllTileFlags: 1073741825
  - first: {x: -2, y: -12, z: 0}
    second:
      serializedVersion: 2
      m_TileIndex: 88
      m_TileSpriteIndex: 88
      m_TileMatrixIndex: 0
      m_TileColorIndex: 0
      m_TileObjectToInstantiateIndex: 65535
      dummyAlignment: 0
      m_AllTileFlags: 1073741825
  - first: {x: -1, y: -12, z: 0}
    second:
      serializedVersion: 2
      m_TileIndex: 89
      m_TileSpriteIndex: 89
      m_TileMatrixIndex: 0
      m_TileColorIndex: 0
      m_TileObjectToInstantiateIndex: 65535
      dummyAlignment: 0
      m_AllTileFlags: 1073741825
  - first: {x: 0, y: -12, z: 0}
    second:
      serializedVersion: 2
      m_TileIndex: 90
      m_TileSpriteIndex: 90
      m_TileMatrixIndex: 0
      m_TileColorIndex: 0
      m_TileObjectToInstantiateIndex: 65535
      dummyAlignment: 0
      m_AllTileFlags: 1073741825
  - first: {x: 1, y: -12, z: 0}
    second:
      serializedVersion: 2
      m_TileIndex: 91
      m_TileSpriteIndex: 91
      m_TileMatrixIndex: 0
      m_TileColorIndex: 0
      m_TileObjectToInstantiateIndex: 65535
      dummyAlignment: 0
      m_AllTileFlags: 1073741825
  - first: {x: 2, y: -12, z: 0}
    second:
      serializedVersion: 2
      m_TileIndex: 92
      m_TileSpriteIndex: 92
      m_TileMatrixIndex: 0
      m_TileColorIndex: 0
      m_TileObjectToInstantiateIndex: 65535
      dummyAlignment: 0
      m_AllTileFlags: 1073741825
  - first: {x: 3, y: -12, z: 0}
    second:
      serializedVersion: 2
      m_TileIndex: 93
      m_TileSpriteIndex: 93
      m_TileMatrixIndex: 0
      m_TileColorIndex: 0
      m_TileObjectToInstantiateIndex: 65535
      dummyAlignment: 0
      m_AllTileFlags: 1073741825
  - first: {x: 4, y: -12, z: 0}
    second:
      serializedVersion: 2
      m_TileIndex: 94
      m_TileSpriteIndex: 94
      m_TileMatrixIndex: 0
      m_TileColorIndex: 0
      m_TileObjectToInstantiateIndex: 65535
      dummyAlignment: 0
      m_AllTileFlags: 1073741825
  - first: {x: 5, y: -12, z: 0}
    second:
      serializedVersion: 2
      m_TileIndex: 95
      m_TileSpriteIndex: 95
      m_TileMatrixIndex: 0
      m_TileColorIndex: 0
      m_TileObjectToInstantiateIndex: 65535
      dummyAlignment: 0
      m_AllTileFlags: 1073741825
  - first: {x: -2, y: -11, z: 0}
    second:
      serializedVersion: 2
      m_TileIndex: 80
      m_TileSpriteIndex: 80
      m_TileMatrixIndex: 0
      m_TileColorIndex: 0
      m_TileObjectToInstantiateIndex: 65535
      dummyAlignment: 0
      m_AllTileFlags: 1073741825
  - first: {x: -1, y: -11, z: 0}
    second:
      serializedVersion: 2
      m_TileIndex: 81
      m_TileSpriteIndex: 81
      m_TileMatrixIndex: 0
      m_TileColorIndex: 0
      m_TileObjectToInstantiateIndex: 65535
      dummyAlignment: 0
      m_AllTileFlags: 1073741825
  - first: {x: 0, y: -11, z: 0}
    second:
      serializedVersion: 2
      m_TileIndex: 82
      m_TileSpriteIndex: 82
      m_TileMatrixIndex: 0
      m_TileColorIndex: 0
      m_TileObjectToInstantiateIndex: 65535
      dummyAlignment: 0
      m_AllTileFlags: 1073741825
  - first: {x: 1, y: -11, z: 0}
    second:
      serializedVersion: 2
      m_TileIndex: 83
      m_TileSpriteIndex: 83
      m_TileMatrixIndex: 0
      m_TileColorIndex: 0
      m_TileObjectToInstantiateIndex: 65535
      dummyAlignment: 0
      m_AllTileFlags: 1073741825
  - first: {x: 2, y: -11, z: 0}
    second:
      serializedVersion: 2
      m_TileIndex: 84
      m_TileSpriteIndex: 84
      m_TileMatrixIndex: 0
      m_TileColorIndex: 0
      m_TileObjectToInstantiateIndex: 65535
      dummyAlignment: 0
      m_AllTileFlags: 1073741825
  - first: {x: 3, y: -11, z: 0}
    second:
      serializedVersion: 2
      m_TileIndex: 85
      m_TileSpriteIndex: 85
      m_TileMatrixIndex: 0
      m_TileColorIndex: 0
      m_TileObjectToInstantiateIndex: 65535
      dummyAlignment: 0
      m_AllTileFlags: 1073741825
  - first: {x: 4, y: -11, z: 0}
    second:
      serializedVersion: 2
      m_TileIndex: 86
      m_TileSpriteIndex: 86
      m_TileMatrixIndex: 0
      m_TileColorIndex: 0
      m_TileObjectToInstantiateIndex: 65535
      dummyAlignment: 0
      m_AllTileFlags: 1073741825
  - first: {x: 5, y: -11, z: 0}
    second:
      serializedVersion: 2
      m_TileIndex: 87
      m_TileSpriteIndex: 87
      m_TileMatrixIndex: 0
      m_TileColorIndex: 0
      m_TileObjectToInstantiateIndex: 65535
      dummyAlignment: 0
      m_AllTileFlags: 1073741825
  - first: {x: -2, y: -10, z: 0}
    second:
      serializedVersion: 2
      m_TileIndex: 72
      m_TileSpriteIndex: 72
      m_TileMatrixIndex: 0
      m_TileColorIndex: 0
      m_TileObjectToInstantiateIndex: 65535
      dummyAlignment: 0
      m_AllTileFlags: 1073741825
  - first: {x: -1, y: -10, z: 0}
    second:
      serializedVersion: 2
      m_TileIndex: 73
      m_TileSpriteIndex: 73
      m_TileMatrixIndex: 0
      m_TileColorIndex: 0
      m_TileObjectToInstantiateIndex: 65535
      dummyAlignment: 0
      m_AllTileFlags: 1073741825
  - first: {x: 0, y: -10, z: 0}
    second:
      serializedVersion: 2
      m_TileIndex: 74
      m_TileSpriteIndex: 74
      m_TileMatrixIndex: 0
      m_TileColorIndex: 0
      m_TileObjectToInstantiateIndex: 65535
      dummyAlignment: 0
      m_AllTileFlags: 1073741825
  - first: {x: 1, y: -10, z: 0}
    second:
      serializedVersion: 2
      m_TileIndex: 75
      m_TileSpriteIndex: 75
      m_TileMatrixIndex: 0
      m_TileColorIndex: 0
      m_TileObjectToInstantiateIndex: 65535
      dummyAlignment: 0
      m_AllTileFlags: 1073741825
  - first: {x: 2, y: -10, z: 0}
    second:
      serializedVersion: 2
      m_TileIndex: 76
      m_TileSpriteIndex: 76
      m_TileMatrixIndex: 0
      m_TileColorIndex: 0
      m_TileObjectToInstantiateIndex: 65535
      dummyAlignment: 0
      m_AllTileFlags: 1073741825
  - first: {x: 3, y: -10, z: 0}
    second:
      serializedVersion: 2
      m_TileIndex: 77
      m_TileSpriteIndex: 77
      m_TileMatrixIndex: 0
      m_TileColorIndex: 0
      m_TileObjectToInstantiateIndex: 65535
      dummyAlignment: 0
      m_AllTileFlags: 1073741825
  - first: {x: 4, y: -10, z: 0}
    second:
      serializedVersion: 2
      m_TileIndex: 78
      m_TileSpriteIndex: 78
      m_TileMatrixIndex: 0
      m_TileColorIndex: 0
      m_TileObjectToInstantiateIndex: 65535
      dummyAlignment: 0
      m_AllTileFlags: 1073741825
  - first: {x: 5, y: -10, z: 0}
    second:
      serializedVersion: 2
      m_TileIndex: 79
      m_TileSpriteIndex: 79
      m_TileMatrixIndex: 0
      m_TileColorIndex: 0
      m_TileObjectToInstantiateIndex: 65535
      dummyAlignment: 0
      m_AllTileFlags: 1073741825
  - first: {x: -2, y: -9, z: 0}
    second:
      serializedVersion: 2
      m_TileIndex: 64
      m_TileSpriteIndex: 64
      m_TileMatrixIndex: 0
      m_TileColorIndex: 0
      m_TileObjectToInstantiateIndex: 65535
      dummyAlignment: 0
      m_AllTileFlags: 1073741825
  - first: {x: -1, y: -9, z: 0}
    second:
      serializedVersion: 2
      m_TileIndex: 65
      m_TileSpriteIndex: 65
      m_TileMatrixIndex: 0
      m_TileColorIndex: 0
      m_TileObjectToInstantiateIndex: 65535
      dummyAlignment: 0
      m_AllTileFlags: 1073741825
  - first: {x: 0, y: -9, z: 0}
    second:
      serializedVersion: 2
      m_TileIndex: 66
      m_TileSpriteIndex: 66
      m_TileMatrixIndex: 0
      m_TileColorIndex: 0
      m_TileObjectToInstantiateIndex: 65535
      dummyAlignment: 0
      m_AllTileFlags: 1073741825
  - first: {x: 1, y: -9, z: 0}
    second:
      serializedVersion: 2
      m_TileIndex: 67
      m_TileSpriteIndex: 67
      m_TileMatrixIndex: 0
      m_TileColorIndex: 0
      m_TileObjectToInstantiateIndex: 65535
      dummyAlignment: 0
      m_AllTileFlags: 1073741825
  - first: {x: 2, y: -9, z: 0}
    second:
      serializedVersion: 2
      m_TileIndex: 68
      m_TileSpriteIndex: 68
      m_TileMatrixIndex: 0
      m_TileColorIndex: 0
      m_TileObjectToInstantiateIndex: 65535
      dummyAlignment: 0
      m_AllTileFlags: 1073741825
  - first: {x: 3, y: -9, z: 0}
    second:
      serializedVersion: 2
      m_TileIndex: 69
      m_TileSpriteIndex: 69
      m_TileMatrixIndex: 0
      m_TileColorIndex: 0
      m_TileObjectToInstantiateIndex: 65535
      dummyAlignment: 0
      m_AllTileFlags: 1073741825
  - first: {x: 4, y: -9, z: 0}
    second:
      serializedVersion: 2
      m_TileIndex: 70
      m_TileSpriteIndex: 70
      m_TileMatrixIndex: 0
      m_TileColorIndex: 0
      m_TileObjectToInstantiateIndex: 65535
      dummyAlignment: 0
      m_AllTileFlags: 1073741825
  - first: {x: 5, y: -9, z: 0}
    second:
      serializedVersion: 2
      m_TileIndex: 71
      m_TileSpriteIndex: 71
      m_TileMatrixIndex: 0
      m_TileColorIndex: 0
      m_TileObjectToInstantiateIndex: 65535
      dummyAlignment: 0
      m_AllTileFlags: 1073741825
  - first: {x: -2, y: -8, z: 0}
    second:
      serializedVersion: 2
      m_TileIndex: 56
      m_TileSpriteIndex: 56
      m_TileMatrixIndex: 0
      m_TileColorIndex: 0
      m_TileObjectToInstantiateIndex: 65535
      dummyAlignment: 0
      m_AllTileFlags: 1073741825
  - first: {x: -1, y: -8, z: 0}
    second:
      serializedVersion: 2
      m_TileIndex: 57
      m_TileSpriteIndex: 57
      m_TileMatrixIndex: 0
      m_TileColorIndex: 0
      m_TileObjectToInstantiateIndex: 65535
      dummyAlignment: 0
      m_AllTileFlags: 1073741825
  - first: {x: 0, y: -8, z: 0}
    second:
      serializedVersion: 2
      m_TileIndex: 58
      m_TileSpriteIndex: 58
      m_TileMatrixIndex: 0
      m_TileColorIndex: 0
      m_TileObjectToInstantiateIndex: 65535
      dummyAlignment: 0
      m_AllTileFlags: 1073741825
  - first: {x: 1, y: -8, z: 0}
    second:
      serializedVersion: 2
      m_TileIndex: 59
      m_TileSpriteIndex: 59
      m_TileMatrixIndex: 0
      m_TileColorIndex: 0
      m_TileObjectToInstantiateIndex: 65535
      dummyAlignment: 0
      m_AllTileFlags: 1073741825
  - first: {x: 2, y: -8, z: 0}
    second:
      serializedVersion: 2
      m_TileIndex: 60
      m_TileSpriteIndex: 60
      m_TileMatrixIndex: 0
      m_TileColorIndex: 0
      m_TileObjectToInstantiateIndex: 65535
      dummyAlignment: 0
      m_AllTileFlags: 1073741825
  - first: {x: 3, y: -8, z: 0}
    second:
      serializedVersion: 2
      m_TileIndex: 61
      m_TileSpriteIndex: 61
      m_TileMatrixIndex: 0
      m_TileColorIndex: 0
      m_TileObjectToInstantiateIndex: 65535
      dummyAlignment: 0
      m_AllTileFlags: 1073741825
  - first: {x: 4, y: -8, z: 0}
    second:
      serializedVersion: 2
      m_TileIndex: 62
      m_TileSpriteIndex: 62
      m_TileMatrixIndex: 0
      m_TileColorIndex: 0
      m_TileObjectToInstantiateIndex: 65535
      dummyAlignment: 0
      m_AllTileFlags: 1073741825
  - first: {x: 5, y: -8, z: 0}
    second:
      serializedVersion: 2
      m_TileIndex: 63
      m_TileSpriteIndex: 63
      m_TileMatrixIndex: 0
      m_TileColorIndex: 0
      m_TileObjectToInstantiateIndex: 65535
      dummyAlignment: 0
      m_AllTileFlags: 1073741825
  - first: {x: -2, y: -7, z: 0}
    second:
      serializedVersion: 2
      m_TileIndex: 48
      m_TileSpriteIndex: 48
      m_TileMatrixIndex: 0
      m_TileColorIndex: 0
      m_TileObjectToInstantiateIndex: 65535
      dummyAlignment: 0
      m_AllTileFlags: 1073741825
  - first: {x: -1, y: -7, z: 0}
    second:
      serializedVersion: 2
      m_TileIndex: 49
      m_TileSpriteIndex: 49
      m_TileMatrixIndex: 0
      m_TileColorIndex: 0
      m_TileObjectToInstantiateIndex: 65535
      dummyAlignment: 0
      m_AllTileFlags: 1073741825
  - first: {x: 0, y: -7, z: 0}
    second:
      serializedVersion: 2
      m_TileIndex: 50
      m_TileSpriteIndex: 50
      m_TileMatrixIndex: 0
      m_TileColorIndex: 0
      m_TileObjectToInstantiateIndex: 65535
      dummyAlignment: 0
      m_AllTileFlags: 1073741825
  - first: {x: 1, y: -7, z: 0}
    second:
      serializedVersion: 2
      m_TileIndex: 51
      m_TileSpriteIndex: 51
      m_TileMatrixIndex: 0
      m_TileColorIndex: 0
      m_TileObjectToInstantiateIndex: 65535
      dummyAlignment: 0
      m_AllTileFlags: 1073741825
  - first: {x: 2, y: -7, z: 0}
    second:
      serializedVersion: 2
      m_TileIndex: 52
      m_TileSpriteIndex: 52
      m_TileMatrixIndex: 0
      m_TileColorIndex: 0
      m_TileObjectToInstantiateIndex: 65535
      dummyAlignment: 0
      m_AllTileFlags: 1073741825
  - first: {x: 3, y: -7, z: 0}
    second:
      serializedVersion: 2
      m_TileIndex: 53
      m_TileSpriteIndex: 53
      m_TileMatrixIndex: 0
      m_TileColorIndex: 0
      m_TileObjectToInstantiateIndex: 65535
      dummyAlignment: 0
      m_AllTileFlags: 1073741825
  - first: {x: 4, y: -7, z: 0}
    second:
      serializedVersion: 2
      m_TileIndex: 54
      m_TileSpriteIndex: 54
      m_TileMatrixIndex: 0
      m_TileColorIndex: 0
      m_TileObjectToInstantiateIndex: 65535
      dummyAlignment: 0
      m_AllTileFlags: 1073741825
  - first: {x: 5, y: -7, z: 0}
    second:
      serializedVersion: 2
      m_TileIndex: 55
      m_TileSpriteIndex: 55
      m_TileMatrixIndex: 0
      m_TileColorIndex: 0
      m_TileObjectToInstantiateIndex: 65535
      dummyAlignment: 0
      m_AllTileFlags: 1073741825
  - first: {x: -2, y: -6, z: 0}
    second:
      serializedVersion: 2
      m_TileIndex: 40
      m_TileSpriteIndex: 40
      m_TileMatrixIndex: 0
      m_TileColorIndex: 0
      m_TileObjectToInstantiateIndex: 65535
      dummyAlignment: 0
      m_AllTileFlags: 1073741825
  - first: {x: -1, y: -6, z: 0}
    second:
      serializedVersion: 2
      m_TileIndex: 41
      m_TileSpriteIndex: 41
      m_TileMatrixIndex: 0
      m_TileColorIndex: 0
      m_TileObjectToInstantiateIndex: 65535
      dummyAlignment: 0
      m_AllTileFlags: 1073741825
  - first: {x: 0, y: -6, z: 0}
    second:
      serializedVersion: 2
      m_TileIndex: 42
      m_TileSpriteIndex: 42
      m_TileMatrixIndex: 0
      m_TileColorIndex: 0
      m_TileObjectToInstantiateIndex: 65535
      dummyAlignment: 0
      m_AllTileFlags: 1073741825
  - first: {x: 1, y: -6, z: 0}
    second:
      serializedVersion: 2
      m_TileIndex: 43
      m_TileSpriteIndex: 43
      m_TileMatrixIndex: 0
      m_TileColorIndex: 0
      m_TileObjectToInstantiateIndex: 65535
      dummyAlignment: 0
      m_AllTileFlags: 1073741825
  - first: {x: 2, y: -6, z: 0}
    second:
      serializedVersion: 2
      m_TileIndex: 44
      m_TileSpriteIndex: 44
      m_TileMatrixIndex: 0
      m_TileColorIndex: 0
      m_TileObjectToInstantiateIndex: 65535
      dummyAlignment: 0
      m_AllTileFlags: 1073741825
  - first: {x: 3, y: -6, z: 0}
    second:
      serializedVersion: 2
      m_TileIndex: 45
      m_TileSpriteIndex: 45
      m_TileMatrixIndex: 0
      m_TileColorIndex: 0
      m_TileObjectToInstantiateIndex: 65535
      dummyAlignment: 0
      m_AllTileFlags: 1073741825
  - first: {x: 4, y: -6, z: 0}
    second:
      serializedVersion: 2
      m_TileIndex: 46
      m_TileSpriteIndex: 46
      m_TileMatrixIndex: 0
      m_TileColorIndex: 0
      m_TileObjectToInstantiateIndex: 65535
      dummyAlignment: 0
      m_AllTileFlags: 1073741825
  - first: {x: 5, y: -6, z: 0}
    second:
      serializedVersion: 2
      m_TileIndex: 47
      m_TileSpriteIndex: 47
      m_TileMatrixIndex: 0
      m_TileColorIndex: 0
      m_TileObjectToInstantiateIndex: 65535
      dummyAlignment: 0
      m_AllTileFlags: 1073741825
  - first: {x: -2, y: -5, z: 0}
    second:
      serializedVersion: 2
      m_TileIndex: 32
      m_TileSpriteIndex: 32
      m_TileMatrixIndex: 0
      m_TileColorIndex: 0
      m_TileObjectToInstantiateIndex: 65535
      dummyAlignment: 0
      m_AllTileFlags: 1073741825
  - first: {x: -1, y: -5, z: 0}
    second:
      serializedVersion: 2
      m_TileIndex: 33
      m_TileSpriteIndex: 33
      m_TileMatrixIndex: 0
      m_TileColorIndex: 0
      m_TileObjectToInstantiateIndex: 65535
      dummyAlignment: 0
      m_AllTileFlags: 1073741825
  - first: {x: 0, y: -5, z: 0}
    second:
      serializedVersion: 2
      m_TileIndex: 34
      m_TileSpriteIndex: 34
      m_TileMatrixIndex: 0
      m_TileColorIndex: 0
      m_TileObjectToInstantiateIndex: 65535
      dummyAlignment: 0
      m_AllTileFlags: 1073741825
  - first: {x: 1, y: -5, z: 0}
    second:
      serializedVersion: 2
      m_TileIndex: 35
      m_TileSpriteIndex: 35
      m_TileMatrixIndex: 0
      m_TileColorIndex: 0
      m_TileObjectToInstantiateIndex: 65535
      dummyAlignment: 0
      m_AllTileFlags: 1073741825
  - first: {x: 2, y: -5, z: 0}
    second:
      serializedVersion: 2
      m_TileIndex: 36
      m_TileSpriteIndex: 36
      m_TileMatrixIndex: 0
      m_TileColorIndex: 0
      m_TileObjectToInstantiateIndex: 65535
      dummyAlignment: 0
      m_AllTileFlags: 1073741825
  - first: {x: 3, y: -5, z: 0}
    second:
      serializedVersion: 2
      m_TileIndex: 37
      m_TileSpriteIndex: 37
      m_TileMatrixIndex: 0
      m_TileColorIndex: 0
      m_TileObjectToInstantiateIndex: 65535
      dummyAlignment: 0
      m_AllTileFlags: 1073741825
  - first: {x: 4, y: -5, z: 0}
    second:
      serializedVersion: 2
      m_TileIndex: 38
      m_TileSpriteIndex: 38
      m_TileMatrixIndex: 0
      m_TileColorIndex: 0
      m_TileObjectToInstantiateIndex: 65535
      dummyAlignment: 0
      m_AllTileFlags: 1073741825
  - first: {x: 5, y: -5, z: 0}
    second:
      serializedVersion: 2
      m_TileIndex: 39
      m_TileSpriteIndex: 39
      m_TileMatrixIndex: 0
      m_TileColorIndex: 0
      m_TileObjectToInstantiateIndex: 65535
      dummyAlignment: 0
      m_AllTileFlags: 1073741825
  - first: {x: -2, y: -4, z: 0}
    second:
      serializedVersion: 2
      m_TileIndex: 24
      m_TileSpriteIndex: 24
      m_TileMatrixIndex: 0
      m_TileColorIndex: 0
      m_TileObjectToInstantiateIndex: 65535
      dummyAlignment: 0
      m_AllTileFlags: 1073741825
  - first: {x: -1, y: -4, z: 0}
    second:
      serializedVersion: 2
      m_TileIndex: 25
      m_TileSpriteIndex: 25
      m_TileMatrixIndex: 0
      m_TileColorIndex: 0
      m_TileObjectToInstantiateIndex: 65535
      dummyAlignment: 0
      m_AllTileFlags: 1073741825
  - first: {x: 0, y: -4, z: 0}
    second:
      serializedVersion: 2
      m_TileIndex: 26
      m_TileSpriteIndex: 26
      m_TileMatrixIndex: 0
      m_TileColorIndex: 0
      m_TileObjectToInstantiateIndex: 65535
      dummyAlignment: 0
      m_AllTileFlags: 1073741825
  - first: {x: 1, y: -4, z: 0}
    second:
      serializedVersion: 2
      m_TileIndex: 27
      m_TileSpriteIndex: 27
      m_TileMatrixIndex: 0
      m_TileColorIndex: 0
      m_TileObjectToInstantiateIndex: 65535
      dummyAlignment: 0
      m_AllTileFlags: 1073741825
  - first: {x: 2, y: -4, z: 0}
    second:
      serializedVersion: 2
      m_TileIndex: 28
      m_TileSpriteIndex: 28
      m_TileMatrixIndex: 0
      m_TileColorIndex: 0
      m_TileObjectToInstantiateIndex: 65535
      dummyAlignment: 0
      m_AllTileFlags: 1073741825
  - first: {x: 3, y: -4, z: 0}
    second:
      serializedVersion: 2
      m_TileIndex: 29
      m_TileSpriteIndex: 29
      m_TileMatrixIndex: 0
      m_TileColorIndex: 0
      m_TileObjectToInstantiateIndex: 65535
      dummyAlignment: 0
      m_AllTileFlags: 1073741825
  - first: {x: 4, y: -4, z: 0}
    second:
      serializedVersion: 2
      m_TileIndex: 30
      m_TileSpriteIndex: 30
      m_TileMatrixIndex: 0
      m_TileColorIndex: 0
      m_TileObjectToInstantiateIndex: 65535
      dummyAlignment: 0
      m_AllTileFlags: 1073741825
  - first: {x: 5, y: -4, z: 0}
    second:
      serializedVersion: 2
      m_TileIndex: 31
      m_TileSpriteIndex: 31
      m_TileMatrixIndex: 0
      m_TileColorIndex: 0
      m_TileObjectToInstantiateIndex: 65535
      dummyAlignment: 0
      m_AllTileFlags: 1073741825
  - first: {x: -2, y: -3, z: 0}
    second:
      serializedVersion: 2
      m_TileIndex: 16
      m_TileSpriteIndex: 16
      m_TileMatrixIndex: 0
      m_TileColorIndex: 0
      m_TileObjectToInstantiateIndex: 65535
      dummyAlignment: 0
      m_AllTileFlags: 1073741825
  - first: {x: -1, y: -3, z: 0}
    second:
      serializedVersion: 2
      m_TileIndex: 17
      m_TileSpriteIndex: 17
      m_TileMatrixIndex: 0
      m_TileColorIndex: 0
      m_TileObjectToInstantiateIndex: 65535
      dummyAlignment: 0
      m_AllTileFlags: 1073741825
  - first: {x: 0, y: -3, z: 0}
    second:
      serializedVersion: 2
      m_TileIndex: 18
      m_TileSpriteIndex: 18
      m_TileMatrixIndex: 0
      m_TileColorIndex: 0
      m_TileObjectToInstantiateIndex: 65535
      dummyAlignment: 0
      m_AllTileFlags: 1073741825
  - first: {x: 1, y: -3, z: 0}
    second:
      serializedVersion: 2
      m_TileIndex: 19
      m_TileSpriteIndex: 19
      m_TileMatrixIndex: 0
      m_TileColorIndex: 0
      m_TileObjectToInstantiateIndex: 65535
      dummyAlignment: 0
      m_AllTileFlags: 1073741825
  - first: {x: 2, y: -3, z: 0}
    second:
      serializedVersion: 2
      m_TileIndex: 20
      m_TileSpriteIndex: 20
      m_TileMatrixIndex: 0
      m_TileColorIndex: 0
      m_TileObjectToInstantiateIndex: 65535
      dummyAlignment: 0
      m_AllTileFlags: 1073741825
  - first: {x: 3, y: -3, z: 0}
    second:
      serializedVersion: 2
      m_TileIndex: 21
      m_TileSpriteIndex: 21
      m_TileMatrixIndex: 0
      m_TileColorIndex: 0
      m_TileObjectToInstantiateIndex: 65535
      dummyAlignment: 0
      m_AllTileFlags: 1073741825
  - first: {x: 4, y: -3, z: 0}
    second:
      serializedVersion: 2
      m_TileIndex: 22
      m_TileSpriteIndex: 22
      m_TileMatrixIndex: 0
      m_TileColorIndex: 0
      m_TileObjectToInstantiateIndex: 65535
      dummyAlignment: 0
      m_AllTileFlags: 1073741825
  - first: {x: 5, y: -3, z: 0}
    second:
      serializedVersion: 2
      m_TileIndex: 23
      m_TileSpriteIndex: 23
      m_TileMatrixIndex: 0
      m_TileColorIndex: 0
      m_TileObjectToInstantiateIndex: 65535
      dummyAlignment: 0
      m_AllTileFlags: 1073741825
  - first: {x: -2, y: -2, z: 0}
    second:
      serializedVersion: 2
      m_TileIndex: 8
      m_TileSpriteIndex: 8
      m_TileMatrixIndex: 0
      m_TileColorIndex: 0
      m_TileObjectToInstantiateIndex: 65535
      dummyAlignment: 0
      m_AllTileFlags: 1073741825
  - first: {x: -1, y: -2, z: 0}
    second:
      serializedVersion: 2
      m_TileIndex: 9
      m_TileSpriteIndex: 9
      m_TileMatrixIndex: 0
      m_TileColorIndex: 0
      m_TileObjectToInstantiateIndex: 65535
      dummyAlignment: 0
      m_AllTileFlags: 1073741825
  - first: {x: 0, y: -2, z: 0}
    second:
      serializedVersion: 2
      m_TileIndex: 10
      m_TileSpriteIndex: 10
      m_TileMatrixIndex: 0
      m_TileColorIndex: 0
      m_TileObjectToInstantiateIndex: 65535
      dummyAlignment: 0
      m_AllTileFlags: 1073741825
  - first: {x: 1, y: -2, z: 0}
    second:
      serializedVersion: 2
      m_TileIndex: 11
      m_TileSpriteIndex: 11
      m_TileMatrixIndex: 0
      m_TileColorIndex: 0
      m_TileObjectToInstantiateIndex: 65535
      dummyAlignment: 0
      m_AllTileFlags: 1073741825
  - first: {x: 2, y: -2, z: 0}
    second:
      serializedVersion: 2
      m_TileIndex: 12
      m_TileSpriteIndex: 12
      m_TileMatrixIndex: 0
      m_TileColorIndex: 0
      m_TileObjectToInstantiateIndex: 65535
      dummyAlignment: 0
      m_AllTileFlags: 1073741825
  - first: {x: 3, y: -2, z: 0}
    second:
      serializedVersion: 2
      m_TileIndex: 13
      m_TileSpriteIndex: 13
      m_TileMatrixIndex: 0
      m_TileColorIndex: 0
      m_TileObjectToInstantiateIndex: 65535
      dummyAlignment: 0
      m_AllTileFlags: 1073741825
  - first: {x: 4, y: -2, z: 0}
    second:
      serializedVersion: 2
      m_TileIndex: 14
      m_TileSpriteIndex: 14
      m_TileMatrixIndex: 0
      m_TileColorIndex: 0
      m_TileObjectToInstantiateIndex: 65535
      dummyAlignment: 0
      m_AllTileFlags: 1073741825
  - first: {x: 5, y: -2, z: 0}
    second:
      serializedVersion: 2
      m_TileIndex: 15
      m_TileSpriteIndex: 15
      m_TileMatrixIndex: 0
      m_TileColorIndex: 0
      m_TileObjectToInstantiateIndex: 65535
      dummyAlignment: 0
      m_AllTileFlags: 1073741825
  - first: {x: -2, y: -1, z: 0}
    second:
      serializedVersion: 2
      m_TileIndex: 0
      m_TileSpriteIndex: 0
      m_TileMatrixIndex: 0
      m_TileColorIndex: 0
      m_TileObjectToInstantiateIndex: 65535
      dummyAlignment: 0
      m_AllTileFlags: 1073741825
  - first: {x: -1, y: -1, z: 0}
    second:
      serializedVersion: 2
      m_TileIndex: 1
      m_TileSpriteIndex: 1
      m_TileMatrixIndex: 0
      m_TileColorIndex: 0
      m_TileObjectToInstantiateIndex: 65535
      dummyAlignment: 0
      m_AllTileFlags: 1073741825
  - first: {x: 0, y: -1, z: 0}
    second:
      serializedVersion: 2
      m_TileIndex: 2
      m_TileSpriteIndex: 2
      m_TileMatrixIndex: 0
      m_TileColorIndex: 0
      m_TileObjectToInstantiateIndex: 65535
      dummyAlignment: 0
      m_AllTileFlags: 1073741825
  - first: {x: 1, y: -1, z: 0}
    second:
      serializedVersion: 2
      m_TileIndex: 3
      m_TileSpriteIndex: 3
      m_TileMatrixIndex: 0
      m_TileColorIndex: 0
      m_TileObjectToInstantiateIndex: 65535
      dummyAlignment: 0
      m_AllTileFlags: 1073741825
  - first: {x: 2, y: -1, z: 0}
    second:
      serializedVersion: 2
      m_TileIndex: 4
      m_TileSpriteIndex: 4
      m_TileMatrixIndex: 0
      m_TileColorIndex: 0
      m_TileObjectToInstantiateIndex: 65535
      dummyAlignment: 0
      m_AllTileFlags: 1073741825
  - first: {x: 3, y: -1, z: 0}
    second:
      serializedVersion: 2
      m_TileIndex: 5
      m_TileSpriteIndex: 5
      m_TileMatrixIndex: 0
      m_TileColorIndex: 0
      m_TileObjectToInstantiateIndex: 65535
      dummyAlignment: 0
      m_AllTileFlags: 1073741825
  - first: {x: 4, y: -1, z: 0}
    second:
      serializedVersion: 2
      m_TileIndex: 6
      m_TileSpriteIndex: 6
      m_TileMatrixIndex: 0
      m_TileColorIndex: 0
      m_TileObjectToInstantiateIndex: 65535
      dummyAlignment: 0
      m_AllTileFlags: 1073741825
  - first: {x: 5, y: -1, z: 0}
    second:
      serializedVersion: 2
      m_TileIndex: 7
      m_TileSpriteIndex: 7
      m_TileMatrixIndex: 0
      m_TileColorIndex: 0
      m_TileObjectToInstantiateIndex: 65535
      dummyAlignment: 0
      m_AllTileFlags: 1073741825
  m_AnimatedTiles: {}
  m_TileAssetArray:
  - m_RefCount: 1
    m_Data: {fileID: 11400000, guid: 1c4e48cba75123c4db863da59cd590df, type: 2}
  - m_RefCount: 1
    m_Data: {fileID: 11400000, guid: 8cb98f060c5a6464d8424e5c6a1c2c78, type: 2}
  - m_RefCount: 1
    m_Data: {fileID: 11400000, guid: f9610388a7243af478cfec904bee818b, type: 2}
  - m_RefCount: 1
    m_Data: {fileID: 11400000, guid: df180c1e06390d148ba9cb3e2c7a977e, type: 2}
  - m_RefCount: 1
    m_Data: {fileID: 11400000, guid: b3c60dee04ea925499a452ede0ed3061, type: 2}
  - m_RefCount: 1
    m_Data: {fileID: 11400000, guid: ee0942397a2381f46b8223284e7a9162, type: 2}
  - m_RefCount: 1
    m_Data: {fileID: 11400000, guid: 668c1b4c9f44be848a52b417538b848f, type: 2}
  - m_RefCount: 1
    m_Data: {fileID: 11400000, guid: 834560d7859ebd54aa17a0d78d1b2ab0, type: 2}
  - m_RefCount: 1
    m_Data: {fileID: 11400000, guid: 88dc0d688a9823b4ba96e595d7f26ee6, type: 2}
  - m_RefCount: 1
    m_Data: {fileID: 11400000, guid: 6fea6ecad75ebf04bbb28e2acd381a4a, type: 2}
  - m_RefCount: 1
    m_Data: {fileID: 11400000, guid: 80b3a29bf55fd064dbf1deb931ca9559, type: 2}
  - m_RefCount: 1
    m_Data: {fileID: 11400000, guid: 6caf31600755a214eb9aafe60f83b657, type: 2}
  - m_RefCount: 1
    m_Data: {fileID: 11400000, guid: 59ca6c511684a5149b70beb29c948a90, type: 2}
  - m_RefCount: 1
    m_Data: {fileID: 11400000, guid: 9059ef102b934b5478c029deaa92b353, type: 2}
  - m_RefCount: 1
    m_Data: {fileID: 11400000, guid: 0e691dfbea306f149a68d9c20515cc1e, type: 2}
  - m_RefCount: 1
    m_Data: {fileID: 11400000, guid: 92b0b685447ca0b4a9ee47e8b1d5e809, type: 2}
  - m_RefCount: 1
    m_Data: {fileID: 11400000, guid: 28cedb07533c270498ce74b2f1e52452, type: 2}
  - m_RefCount: 1
    m_Data: {fileID: 11400000, guid: 812474db9bca8f94089c085512ea7adc, type: 2}
  - m_RefCount: 1
    m_Data: {fileID: 11400000, guid: 1da23312f85e09647a753d4b55992de0, type: 2}
  - m_RefCount: 1
    m_Data: {fileID: 11400000, guid: 5c05a9bc2da31b74a9e5bbbaea5a4ffc, type: 2}
  - m_RefCount: 1
    m_Data: {fileID: 11400000, guid: 5e6aaea3880d53f48a32f614f1c899cc, type: 2}
  - m_RefCount: 1
    m_Data: {fileID: 11400000, guid: 4f2965c1851fd8d43b96c9887a004f6a, type: 2}
  - m_RefCount: 1
    m_Data: {fileID: 11400000, guid: 3d641081011040441a1f452fa5320659, type: 2}
  - m_RefCount: 1
    m_Data: {fileID: 11400000, guid: 6169899409a1e9d429197807d5e68b7b, type: 2}
  - m_RefCount: 1
    m_Data: {fileID: 11400000, guid: de8a2cd95fb7a374586a1fb264edf219, type: 2}
  - m_RefCount: 1
    m_Data: {fileID: 11400000, guid: bf0d99ef58d80e849a6473aa68092467, type: 2}
  - m_RefCount: 1
    m_Data: {fileID: 11400000, guid: 7e9197ee266d13440b6a234123499248, type: 2}
  - m_RefCount: 1
    m_Data: {fileID: 11400000, guid: 8019bb7c9b36faa499da44ab612cde36, type: 2}
  - m_RefCount: 1
    m_Data: {fileID: 11400000, guid: f1472f3ca03ebd34c8ca3a86f6593e1d, type: 2}
  - m_RefCount: 1
    m_Data: {fileID: 11400000, guid: a870ee1a0ae3f8a42b4f7aa4beff1058, type: 2}
  - m_RefCount: 1
    m_Data: {fileID: 11400000, guid: 1abe2d55d55cdc3499a19394b29ff5d4, type: 2}
  - m_RefCount: 1
    m_Data: {fileID: 11400000, guid: b295db24ac650b34ea0da1955946e774, type: 2}
  - m_RefCount: 1
    m_Data: {fileID: 11400000, guid: 3991b1de48a5eb84c9ea482261d4e014, type: 2}
  - m_RefCount: 1
    m_Data: {fileID: 11400000, guid: 1295c418a598e7f4eabcdfd2af28fc05, type: 2}
  - m_RefCount: 1
    m_Data: {fileID: 11400000, guid: e3a61078f6f21244e9b4b0a8da48dc1c, type: 2}
  - m_RefCount: 1
    m_Data: {fileID: 11400000, guid: e548118563d022c4898475b90254dd8a, type: 2}
  - m_RefCount: 1
    m_Data: {fileID: 11400000, guid: 9eec111ddb1fa604688cba5028178e63, type: 2}
  - m_RefCount: 1
    m_Data: {fileID: 11400000, guid: 569e9d71826d4f54e8a075a221d6d292, type: 2}
  - m_RefCount: 1
    m_Data: {fileID: 11400000, guid: fdbd2fa8787ee2e4d9a59e40e62b91fb, type: 2}
  - m_RefCount: 1
    m_Data: {fileID: 11400000, guid: 8fee20b37eea8e0428850379f093e22c, type: 2}
  - m_RefCount: 1
    m_Data: {fileID: 11400000, guid: b021fa65843084a469a920aa5cd74270, type: 2}
  - m_RefCount: 1
    m_Data: {fileID: 11400000, guid: f3f2ce654acbbdb47ae313cb93c20ce5, type: 2}
  - m_RefCount: 1
    m_Data: {fileID: 11400000, guid: b6ff0682e5bba4841a8ad46f270046c5, type: 2}
  - m_RefCount: 1
    m_Data: {fileID: 11400000, guid: ead983748f7545645857159a7dd04db2, type: 2}
  - m_RefCount: 1
    m_Data: {fileID: 11400000, guid: 3ba7b97ae55b11f4dbe9c04eb22cfbef, type: 2}
  - m_RefCount: 1
    m_Data: {fileID: 11400000, guid: afe719f2b64a5354d9952c76e1be1d13, type: 2}
  - m_RefCount: 1
    m_Data: {fileID: 11400000, guid: 1bc722bb5b9b514458476ab78410cad1, type: 2}
  - m_RefCount: 1
    m_Data: {fileID: 11400000, guid: 8e7cdb58c2ce96a46ad82094de21eecf, type: 2}
  - m_RefCount: 1
    m_Data: {fileID: 11400000, guid: b3c3f76c79055f7479388f690f7a346a, type: 2}
  - m_RefCount: 1
    m_Data: {fileID: 11400000, guid: 6835425fa499ce948ad66edd966c4d91, type: 2}
  - m_RefCount: 1
    m_Data: {fileID: 11400000, guid: 09977027f665127459ce6015a476a3ad, type: 2}
  - m_RefCount: 1
    m_Data: {fileID: 11400000, guid: b97d1a7622ec57143b104a3f539b0ea3, type: 2}
  - m_RefCount: 1
    m_Data: {fileID: 11400000, guid: 30d549189b2207d48aa804ab22ac053d, type: 2}
  - m_RefCount: 1
    m_Data: {fileID: 11400000, guid: 421c66d7b401e8948a7777f1191da7eb, type: 2}
  - m_RefCount: 1
    m_Data: {fileID: 11400000, guid: 74bb9e12b675f8c4a9cff9ce5a50a1fc, type: 2}
  - m_RefCount: 1
    m_Data: {fileID: 11400000, guid: 690489190da839546a8ce2966a973215, type: 2}
  - m_RefCount: 1
    m_Data: {fileID: 11400000, guid: 0d4e7fea14965b5428cb4a89bf3d52a7, type: 2}
  - m_RefCount: 1
    m_Data: {fileID: 11400000, guid: da98ec0b2604edd4c9e191aa353f447e, type: 2}
  - m_RefCount: 1
    m_Data: {fileID: 11400000, guid: 34b294999b9fbde4787220619af95ab8, type: 2}
  - m_RefCount: 1
    m_Data: {fileID: 11400000, guid: 5f742c0932100f94caa1a17d3035da8c, type: 2}
  - m_RefCount: 1
    m_Data: {fileID: 11400000, guid: d7ec781a0184af04f923b6c528a23a02, type: 2}
  - m_RefCount: 1
    m_Data: {fileID: 11400000, guid: 8fe880aa8a3ffb64ead539a48688ef34, type: 2}
  - m_RefCount: 1
    m_Data: {fileID: 11400000, guid: a4d65f139335c6848946f571ac46ddca, type: 2}
  - m_RefCount: 1
    m_Data: {fileID: 11400000, guid: e30cf546fbece1e45b74210281c06416, type: 2}
  - m_RefCount: 1
    m_Data: {fileID: 11400000, guid: 30099f8fb8f97e142968dda4d7e2da5d, type: 2}
  - m_RefCount: 1
    m_Data: {fileID: 11400000, guid: edaecdc6717ac44418ba13fb00c28ff3, type: 2}
  - m_RefCount: 1
    m_Data: {fileID: 11400000, guid: 68da084c79d704048a20c3b92b23103c, type: 2}
  - m_RefCount: 1
    m_Data: {fileID: 11400000, guid: 60f4f8ea8e53f6543b81b7935e2851ef, type: 2}
  - m_RefCount: 1
    m_Data: {fileID: 11400000, guid: 050808b9d5eb3dc4192bfdee74f55f65, type: 2}
  - m_RefCount: 1
    m_Data: {fileID: 11400000, guid: 89117077985b26a40992357171a81eae, type: 2}
  - m_RefCount: 1
    m_Data: {fileID: 11400000, guid: 2ac65f1dbf817cc4e98b533732516412, type: 2}
  - m_RefCount: 1
    m_Data: {fileID: 11400000, guid: 5e8b2a3c42161204a80e6df663c29ef9, type: 2}
  - m_RefCount: 1
    m_Data: {fileID: 11400000, guid: afe8cd35120ff47419515d01dd8de445, type: 2}
  - m_RefCount: 1
    m_Data: {fileID: 11400000, guid: f7504a6f3c74df2479b90d9e187905a1, type: 2}
  - m_RefCount: 1
    m_Data: {fileID: 11400000, guid: 565a49795e6d080488e534580e2f3e67, type: 2}
  - m_RefCount: 1
    m_Data: {fileID: 11400000, guid: 8e69f47769cd65c439a6cd7c1f0f1707, type: 2}
  - m_RefCount: 1
    m_Data: {fileID: 11400000, guid: 0e467f5eff4508f49aaae019fabf7db0, type: 2}
  - m_RefCount: 1
    m_Data: {fileID: 11400000, guid: 96a71cb47d15a484392cd6e38a806169, type: 2}
  - m_RefCount: 1
    m_Data: {fileID: 11400000, guid: e97e28b891bc71b48930c8f3daf14b7e, type: 2}
  - m_RefCount: 1
    m_Data: {fileID: 11400000, guid: 9ef51ce05b61bbc49a141057f6eb6d7c, type: 2}
  - m_RefCount: 1
    m_Data: {fileID: 11400000, guid: 25e1634ef5ce169468e6ca35b80a2276, type: 2}
  - m_RefCount: 1
    m_Data: {fileID: 11400000, guid: 16e81f4bacd48dd4eb4a338f71e38a37, type: 2}
  - m_RefCount: 1
    m_Data: {fileID: 11400000, guid: 82b5fbb72fe49f54f8813dbd51e18ea6, type: 2}
  - m_RefCount: 1
    m_Data: {fileID: 11400000, guid: d54dca725e923b840850a090500ff6dc, type: 2}
  - m_RefCount: 1
    m_Data: {fileID: 11400000, guid: 8f08b3278e7fb27438ab4309d1dc0309, type: 2}
  - m_RefCount: 1
    m_Data: {fileID: 11400000, guid: f55257ec0ab9a764cbdcb68fd133daef, type: 2}
  - m_RefCount: 1
    m_Data: {fileID: 11400000, guid: 1bd400feab54d4a45b6e0d8ea96ad254, type: 2}
  - m_RefCount: 1
    m_Data: {fileID: 11400000, guid: c33e2839e39bb894391c2e521615c8f0, type: 2}
  - m_RefCount: 1
    m_Data: {fileID: 11400000, guid: ff3651015ace74045a2f85d23818774a, type: 2}
  - m_RefCount: 1
    m_Data: {fileID: 11400000, guid: 5d523c7e1d928b34cb91471c26dbb9ba, type: 2}
  - m_RefCount: 1
    m_Data: {fileID: 11400000, guid: ac0e572dd5482984cae84cd72b47e393, type: 2}
  - m_RefCount: 1
    m_Data: {fileID: 11400000, guid: d9e3a5e60a0a2d944836ef600417e789, type: 2}
  - m_RefCount: 1
    m_Data: {fileID: 11400000, guid: 43d9225c0742cc141bbd6e8c9192bc11, type: 2}
  - m_RefCount: 1
    m_Data: {fileID: 11400000, guid: 3240cba61b4d2ef4ea4739c0e9f04973, type: 2}
  - m_RefCount: 1
    m_Data: {fileID: 11400000, guid: 5f903da88608aec4ca6916a9ba075dca, type: 2}
  - m_RefCount: 1
    m_Data: {fileID: 11400000, guid: 74aafc1434127524f86417dfa12be6e7, type: 2}
  - m_RefCount: 1
    m_Data: {fileID: 11400000, guid: 09024e0c2e76f394598bdf3417cabbd5, type: 2}
  - m_RefCount: 1
    m_Data: {fileID: 11400000, guid: 70c1f55c545e8a046b41bdf0f4587930, type: 2}
  - m_RefCount: 1
    m_Data: {fileID: 11400000, guid: 3f2e5fe9e015f944b85dcffc63336401, type: 2}
  - m_RefCount: 1
    m_Data: {fileID: 11400000, guid: 64f440babbd082145bd01fa0e602df19, type: 2}
  - m_RefCount: 1
    m_Data: {fileID: 11400000, guid: a890555ff941085429c66275dfbc803b, type: 2}
  - m_RefCount: 1
    m_Data: {fileID: 11400000, guid: 94a59bb9c60c427429fd233a08e3b6f3, type: 2}
  - m_RefCount: 1
    m_Data: {fileID: 11400000, guid: 23afba870d2b45b4787997eb5ae34fdf, type: 2}
  - m_RefCount: 1
    m_Data: {fileID: 11400000, guid: 003486b92869dbb4bbd33244b72fe26b, type: 2}
  - m_RefCount: 1
    m_Data: {fileID: 11400000, guid: 98bb86687454c3b4194bdf0d7dc0f01c, type: 2}
  - m_RefCount: 1
    m_Data: {fileID: 11400000, guid: f3771add86a17b04899c3791f9999130, type: 2}
  - m_RefCount: 1
    m_Data: {fileID: 11400000, guid: a7446d15943388c49ba738b848e2144c, type: 2}
  - m_RefCount: 1
    m_Data: {fileID: 11400000, guid: 97e24e58010946746993887ab2bbf8e3, type: 2}
  - m_RefCount: 1
    m_Data: {fileID: 11400000, guid: 9ec0fd78d7de657489448fbf9212dff9, type: 2}
  - m_RefCount: 1
    m_Data: {fileID: 11400000, guid: af753f89308c8ab4387b2d68b07e5696, type: 2}
  - m_RefCount: 1
    m_Data: {fileID: 11400000, guid: 227ae8167e546824989c281f73b080e3, type: 2}
  - m_RefCount: 1
    m_Data: {fileID: 11400000, guid: b30665d5b023b0e41b63dd58a5c0f20d, type: 2}
  - m_RefCount: 1
    m_Data: {fileID: 11400000, guid: 5072eecad6263514b93307a0a5a162bf, type: 2}
  - m_RefCount: 1
    m_Data: {fileID: 11400000, guid: 473cfecdbd411a7439037e3e670e9e59, type: 2}
  - m_RefCount: 1
    m_Data: {fileID: 11400000, guid: 989512d042677f54188100e32077ff19, type: 2}
  - m_RefCount: 1
    m_Data: {fileID: 11400000, guid: 6aabc2849b8d9334e851eb5db833b10a, type: 2}
  m_TileSpriteArray:
  - m_RefCount: 1
    m_Data: {fileID: 21300000, guid: 894640e3f9d838a4499398609b715c7f, type: 3}
  - m_RefCount: 1
    m_Data: {fileID: 21300002, guid: 894640e3f9d838a4499398609b715c7f, type: 3}
  - m_RefCount: 1
    m_Data: {fileID: 21300004, guid: 894640e3f9d838a4499398609b715c7f, type: 3}
  - m_RefCount: 1
    m_Data: {fileID: 21300006, guid: 894640e3f9d838a4499398609b715c7f, type: 3}
  - m_RefCount: 1
    m_Data: {fileID: 21300008, guid: 894640e3f9d838a4499398609b715c7f, type: 3}
  - m_RefCount: 1
    m_Data: {fileID: 21300010, guid: 894640e3f9d838a4499398609b715c7f, type: 3}
  - m_RefCount: 1
    m_Data: {fileID: 21300012, guid: 894640e3f9d838a4499398609b715c7f, type: 3}
  - m_RefCount: 1
    m_Data: {fileID: 21300014, guid: 894640e3f9d838a4499398609b715c7f, type: 3}
  - m_RefCount: 1
    m_Data: {fileID: 21300016, guid: 894640e3f9d838a4499398609b715c7f, type: 3}
  - m_RefCount: 1
    m_Data: {fileID: 21300018, guid: 894640e3f9d838a4499398609b715c7f, type: 3}
  - m_RefCount: 1
    m_Data: {fileID: 21300020, guid: 894640e3f9d838a4499398609b715c7f, type: 3}
  - m_RefCount: 1
    m_Data: {fileID: 21300022, guid: 894640e3f9d838a4499398609b715c7f, type: 3}
  - m_RefCount: 1
    m_Data: {fileID: 21300024, guid: 894640e3f9d838a4499398609b715c7f, type: 3}
  - m_RefCount: 1
    m_Data: {fileID: 21300026, guid: 894640e3f9d838a4499398609b715c7f, type: 3}
  - m_RefCount: 1
    m_Data: {fileID: 21300028, guid: 894640e3f9d838a4499398609b715c7f, type: 3}
  - m_RefCount: 1
    m_Data: {fileID: 21300030, guid: 894640e3f9d838a4499398609b715c7f, type: 3}
  - m_RefCount: 1
    m_Data: {fileID: 21300032, guid: 894640e3f9d838a4499398609b715c7f, type: 3}
  - m_RefCount: 1
    m_Data: {fileID: 21300034, guid: 894640e3f9d838a4499398609b715c7f, type: 3}
  - m_RefCount: 1
    m_Data: {fileID: 21300036, guid: 894640e3f9d838a4499398609b715c7f, type: 3}
  - m_RefCount: 1
    m_Data: {fileID: 21300038, guid: 894640e3f9d838a4499398609b715c7f, type: 3}
  - m_RefCount: 1
    m_Data: {fileID: 21300040, guid: 894640e3f9d838a4499398609b715c7f, type: 3}
  - m_RefCount: 1
    m_Data: {fileID: 21300042, guid: 894640e3f9d838a4499398609b715c7f, type: 3}
  - m_RefCount: 1
    m_Data: {fileID: 21300044, guid: 894640e3f9d838a4499398609b715c7f, type: 3}
  - m_RefCount: 1
    m_Data: {fileID: 21300046, guid: 894640e3f9d838a4499398609b715c7f, type: 3}
  - m_RefCount: 1
    m_Data: {fileID: 21300048, guid: 894640e3f9d838a4499398609b715c7f, type: 3}
  - m_RefCount: 1
    m_Data: {fileID: 21300050, guid: 894640e3f9d838a4499398609b715c7f, type: 3}
  - m_RefCount: 1
    m_Data: {fileID: 21300052, guid: 894640e3f9d838a4499398609b715c7f, type: 3}
  - m_RefCount: 1
    m_Data: {fileID: 21300054, guid: 894640e3f9d838a4499398609b715c7f, type: 3}
  - m_RefCount: 1
    m_Data: {fileID: 21300056, guid: 894640e3f9d838a4499398609b715c7f, type: 3}
  - m_RefCount: 1
    m_Data: {fileID: 21300058, guid: 894640e3f9d838a4499398609b715c7f, type: 3}
  - m_RefCount: 1
    m_Data: {fileID: 21300060, guid: 894640e3f9d838a4499398609b715c7f, type: 3}
  - m_RefCount: 1
    m_Data: {fileID: 21300062, guid: 894640e3f9d838a4499398609b715c7f, type: 3}
  - m_RefCount: 1
    m_Data: {fileID: 21300064, guid: 894640e3f9d838a4499398609b715c7f, type: 3}
  - m_RefCount: 1
    m_Data: {fileID: 21300066, guid: 894640e3f9d838a4499398609b715c7f, type: 3}
  - m_RefCount: 1
    m_Data: {fileID: 21300068, guid: 894640e3f9d838a4499398609b715c7f, type: 3}
  - m_RefCount: 1
    m_Data: {fileID: 21300070, guid: 894640e3f9d838a4499398609b715c7f, type: 3}
  - m_RefCount: 1
    m_Data: {fileID: 21300072, guid: 894640e3f9d838a4499398609b715c7f, type: 3}
  - m_RefCount: 1
    m_Data: {fileID: 21300074, guid: 894640e3f9d838a4499398609b715c7f, type: 3}
  - m_RefCount: 1
    m_Data: {fileID: 21300076, guid: 894640e3f9d838a4499398609b715c7f, type: 3}
  - m_RefCount: 1
    m_Data: {fileID: 21300078, guid: 894640e3f9d838a4499398609b715c7f, type: 3}
  - m_RefCount: 1
    m_Data: {fileID: 21300080, guid: 894640e3f9d838a4499398609b715c7f, type: 3}
  - m_RefCount: 1
    m_Data: {fileID: 21300082, guid: 894640e3f9d838a4499398609b715c7f, type: 3}
  - m_RefCount: 1
    m_Data: {fileID: 21300084, guid: 894640e3f9d838a4499398609b715c7f, type: 3}
  - m_RefCount: 1
    m_Data: {fileID: 21300086, guid: 894640e3f9d838a4499398609b715c7f, type: 3}
  - m_RefCount: 1
    m_Data: {fileID: 21300088, guid: 894640e3f9d838a4499398609b715c7f, type: 3}
  - m_RefCount: 1
    m_Data: {fileID: 21300090, guid: 894640e3f9d838a4499398609b715c7f, type: 3}
  - m_RefCount: 1
    m_Data: {fileID: 21300092, guid: 894640e3f9d838a4499398609b715c7f, type: 3}
  - m_RefCount: 1
    m_Data: {fileID: 21300094, guid: 894640e3f9d838a4499398609b715c7f, type: 3}
  - m_RefCount: 1
    m_Data: {fileID: 21300096, guid: 894640e3f9d838a4499398609b715c7f, type: 3}
  - m_RefCount: 1
    m_Data: {fileID: 21300098, guid: 894640e3f9d838a4499398609b715c7f, type: 3}
  - m_RefCount: 1
    m_Data: {fileID: 21300100, guid: 894640e3f9d838a4499398609b715c7f, type: 3}
  - m_RefCount: 1
    m_Data: {fileID: 21300102, guid: 894640e3f9d838a4499398609b715c7f, type: 3}
  - m_RefCount: 1
    m_Data: {fileID: 21300104, guid: 894640e3f9d838a4499398609b715c7f, type: 3}
  - m_RefCount: 1
    m_Data: {fileID: 21300106, guid: 894640e3f9d838a4499398609b715c7f, type: 3}
  - m_RefCount: 1
    m_Data: {fileID: 21300108, guid: 894640e3f9d838a4499398609b715c7f, type: 3}
  - m_RefCount: 1
    m_Data: {fileID: 21300110, guid: 894640e3f9d838a4499398609b715c7f, type: 3}
  - m_RefCount: 1
    m_Data: {fileID: 21300112, guid: 894640e3f9d838a4499398609b715c7f, type: 3}
  - m_RefCount: 1
    m_Data: {fileID: 21300114, guid: 894640e3f9d838a4499398609b715c7f, type: 3}
  - m_RefCount: 1
    m_Data: {fileID: 21300116, guid: 894640e3f9d838a4499398609b715c7f, type: 3}
  - m_RefCount: 1
    m_Data: {fileID: 21300118, guid: 894640e3f9d838a4499398609b715c7f, type: 3}
  - m_RefCount: 1
    m_Data: {fileID: 21300120, guid: 894640e3f9d838a4499398609b715c7f, type: 3}
  - m_RefCount: 1
    m_Data: {fileID: 21300122, guid: 894640e3f9d838a4499398609b715c7f, type: 3}
  - m_RefCount: 1
    m_Data: {fileID: 21300124, guid: 894640e3f9d838a4499398609b715c7f, type: 3}
  - m_RefCount: 1
    m_Data: {fileID: 21300126, guid: 894640e3f9d838a4499398609b715c7f, type: 3}
  - m_RefCount: 1
    m_Data: {fileID: 21300128, guid: 894640e3f9d838a4499398609b715c7f, type: 3}
  - m_RefCount: 1
    m_Data: {fileID: 21300130, guid: 894640e3f9d838a4499398609b715c7f, type: 3}
  - m_RefCount: 1
    m_Data: {fileID: 21300132, guid: 894640e3f9d838a4499398609b715c7f, type: 3}
  - m_RefCount: 1
    m_Data: {fileID: 21300134, guid: 894640e3f9d838a4499398609b715c7f, type: 3}
  - m_RefCount: 1
    m_Data: {fileID: 21300136, guid: 894640e3f9d838a4499398609b715c7f, type: 3}
  - m_RefCount: 1
    m_Data: {fileID: 21300138, guid: 894640e3f9d838a4499398609b715c7f, type: 3}
  - m_RefCount: 1
    m_Data: {fileID: 21300140, guid: 894640e3f9d838a4499398609b715c7f, type: 3}
  - m_RefCount: 1
    m_Data: {fileID: 21300142, guid: 894640e3f9d838a4499398609b715c7f, type: 3}
  - m_RefCount: 1
    m_Data: {fileID: 21300144, guid: 894640e3f9d838a4499398609b715c7f, type: 3}
  - m_RefCount: 1
    m_Data: {fileID: 21300146, guid: 894640e3f9d838a4499398609b715c7f, type: 3}
  - m_RefCount: 1
    m_Data: {fileID: 21300148, guid: 894640e3f9d838a4499398609b715c7f, type: 3}
  - m_RefCount: 1
    m_Data: {fileID: 21300150, guid: 894640e3f9d838a4499398609b715c7f, type: 3}
  - m_RefCount: 1
    m_Data: {fileID: 21300152, guid: 894640e3f9d838a4499398609b715c7f, type: 3}
  - m_RefCount: 1
    m_Data: {fileID: 21300154, guid: 894640e3f9d838a4499398609b715c7f, type: 3}
  - m_RefCount: 1
    m_Data: {fileID: 21300156, guid: 894640e3f9d838a4499398609b715c7f, type: 3}
  - m_RefCount: 1
    m_Data: {fileID: 21300158, guid: 894640e3f9d838a4499398609b715c7f, type: 3}
  - m_RefCount: 1
    m_Data: {fileID: 21300160, guid: 894640e3f9d838a4499398609b715c7f, type: 3}
  - m_RefCount: 1
    m_Data: {fileID: 21300162, guid: 894640e3f9d838a4499398609b715c7f, type: 3}
  - m_RefCount: 1
    m_Data: {fileID: 21300164, guid: 894640e3f9d838a4499398609b715c7f, type: 3}
  - m_RefCount: 1
    m_Data: {fileID: 21300166, guid: 894640e3f9d838a4499398609b715c7f, type: 3}
  - m_RefCount: 1
    m_Data: {fileID: 21300168, guid: 894640e3f9d838a4499398609b715c7f, type: 3}
  - m_RefCount: 1
    m_Data: {fileID: 21300170, guid: 894640e3f9d838a4499398609b715c7f, type: 3}
  - m_RefCount: 1
    m_Data: {fileID: 21300172, guid: 894640e3f9d838a4499398609b715c7f, type: 3}
  - m_RefCount: 1
    m_Data: {fileID: 21300174, guid: 894640e3f9d838a4499398609b715c7f, type: 3}
  - m_RefCount: 1
    m_Data: {fileID: 21300176, guid: 894640e3f9d838a4499398609b715c7f, type: 3}
  - m_RefCount: 1
    m_Data: {fileID: 21300178, guid: 894640e3f9d838a4499398609b715c7f, type: 3}
  - m_RefCount: 1
    m_Data: {fileID: 21300180, guid: 894640e3f9d838a4499398609b715c7f, type: 3}
  - m_RefCount: 1
    m_Data: {fileID: 21300182, guid: 894640e3f9d838a4499398609b715c7f, type: 3}
  - m_RefCount: 1
    m_Data: {fileID: 21300184, guid: 894640e3f9d838a4499398609b715c7f, type: 3}
  - m_RefCount: 1
    m_Data: {fileID: 21300186, guid: 894640e3f9d838a4499398609b715c7f, type: 3}
  - m_RefCount: 1
    m_Data: {fileID: 21300188, guid: 894640e3f9d838a4499398609b715c7f, type: 3}
  - m_RefCount: 1
    m_Data: {fileID: 21300190, guid: 894640e3f9d838a4499398609b715c7f, type: 3}
  - m_RefCount: 1
    m_Data: {fileID: 21300192, guid: 894640e3f9d838a4499398609b715c7f, type: 3}
  - m_RefCount: 1
    m_Data: {fileID: 21300194, guid: 894640e3f9d838a4499398609b715c7f, type: 3}
  - m_RefCount: 1
    m_Data: {fileID: 21300196, guid: 894640e3f9d838a4499398609b715c7f, type: 3}
  - m_RefCount: 1
    m_Data: {fileID: 21300198, guid: 894640e3f9d838a4499398609b715c7f, type: 3}
  - m_RefCount: 1
    m_Data: {fileID: 21300200, guid: 894640e3f9d838a4499398609b715c7f, type: 3}
  - m_RefCount: 1
    m_Data: {fileID: 21300202, guid: 894640e3f9d838a4499398609b715c7f, type: 3}
  - m_RefCount: 1
    m_Data: {fileID: 21300204, guid: 894640e3f9d838a4499398609b715c7f, type: 3}
  - m_RefCount: 1
    m_Data: {fileID: 21300206, guid: 894640e3f9d838a4499398609b715c7f, type: 3}
  - m_RefCount: 1
    m_Data: {fileID: 21300208, guid: 894640e3f9d838a4499398609b715c7f, type: 3}
  - m_RefCount: 1
    m_Data: {fileID: 21300210, guid: 894640e3f9d838a4499398609b715c7f, type: 3}
  - m_RefCount: 1
    m_Data: {fileID: 21300212, guid: 894640e3f9d838a4499398609b715c7f, type: 3}
  - m_RefCount: 1
    m_Data: {fileID: 21300214, guid: 894640e3f9d838a4499398609b715c7f, type: 3}
  - m_RefCount: 1
    m_Data: {fileID: 21300216, guid: 894640e3f9d838a4499398609b715c7f, type: 3}
  - m_RefCount: 1
    m_Data: {fileID: 21300218, guid: 894640e3f9d838a4499398609b715c7f, type: 3}
  - m_RefCount: 1
    m_Data: {fileID: 21300220, guid: 894640e3f9d838a4499398609b715c7f, type: 3}
  - m_RefCount: 1
    m_Data: {fileID: 21300222, guid: 894640e3f9d838a4499398609b715c7f, type: 3}
  - m_RefCount: 1
    m_Data: {fileID: 21300224, guid: 894640e3f9d838a4499398609b715c7f, type: 3}
  - m_RefCount: 1
    m_Data: {fileID: 21300226, guid: 894640e3f9d838a4499398609b715c7f, type: 3}
  - m_RefCount: 1
    m_Data: {fileID: 21300228, guid: 894640e3f9d838a4499398609b715c7f, type: 3}
  - m_RefCount: 1
    m_Data: {fileID: 21300230, guid: 894640e3f9d838a4499398609b715c7f, type: 3}
  m_TileMatrixArray:
  - m_RefCount: 116
    m_Data:
      e00: 1
      e01: 0
      e02: 0
      e03: 0
      e10: 0
      e11: 1
      e12: 0
      e13: 0
      e20: 0
      e21: 0
      e22: 1
      e23: 0
      e30: 0
      e31: 0
      e32: 0
      e33: 1
  m_TileColorArray:
  - m_RefCount: 116
    m_Data: {r: 1, g: 1, b: 1, a: 1}
  m_TileObjectToInstantiateArray: []
  m_AnimationFrameRate: 1
  m_Color: {r: 1, g: 1, b: 1, a: 1}
  m_Origin: {x: -2, y: -15, z: 0}
  m_Size: {x: 8, y: 15, z: 1}
  m_TileAnchor: {x: 0.5, y: 0.5, z: 0}
  m_TileOrientation: 0
  m_TileOrientationMatrix:
    e00: 1
    e01: 0
    e02: 0
    e03: 0
    e10: 0
    e11: 1
    e12: 0
    e13: 0
    e20: 0
    e21: 0
    e22: 1
    e23: 0
    e30: 0
    e31: 0
    e32: 0
    e33: 1
--- !u!483693784 &5258827297880220082
TilemapRenderer:
  m_ObjectHideFlags: 0
  m_CorrespondingSourceObject: {fileID: 0}
  m_PrefabInstance: {fileID: 0}
  m_PrefabAsset: {fileID: 0}
  m_GameObject: {fileID: 3583352148004340151}
  m_Enabled: 1
  m_CastShadows: 0
  m_ReceiveShadows: 0
  m_DynamicOccludee: 0
  m_StaticShadowCaster: 0
  m_MotionVectors: 1
  m_LightProbeUsage: 0
  m_ReflectionProbeUsage: 0
  m_RayTracingMode: 0
  m_RayTraceProcedural: 0
  m_RenderingLayerMask: 1
  m_RendererPriority: 0
  m_Materials:
  - {fileID: 10754, guid: 0000000000000000f000000000000000, type: 0}
  m_StaticBatchInfo:
    firstSubMesh: 0
    subMeshCount: 0
  m_StaticBatchRoot: {fileID: 0}
  m_ProbeAnchor: {fileID: 0}
  m_LightProbeVolumeOverride: {fileID: 0}
  m_ScaleInLightmap: 1
  m_ReceiveGI: 1
  m_PreserveUVs: 0
  m_IgnoreNormalsForChartDetection: 0
  m_ImportantGI: 0
  m_StitchLightmapSeams: 1
  m_SelectedEditorRenderState: 0
  m_MinimumChartSize: 4
  m_AutoUVMaxDistance: 0.5
  m_AutoUVMaxAngle: 89
  m_LightmapParameters: {fileID: 0}
  m_SortingLayerID: 0
  m_SortingLayer: 0
  m_SortingOrder: 0
  m_ChunkSize: {x: 32, y: 32, z: 32}
  m_ChunkCullingBounds: {x: 0, y: 0, z: 0}
  m_MaxChunkCount: 16
  m_MaxFrameAge: 16
  m_SortOrder: 0
  m_Mode: 0
  m_DetectChunkCullingBounds: 0
  m_MaskInteraction: 0
--- !u!1 &8670908757814743110
GameObject:
  m_ObjectHideFlags: 0
  m_CorrespondingSourceObject: {fileID: 0}
  m_PrefabInstance: {fileID: 0}
  m_PrefabAsset: {fileID: 0}
  serializedVersion: 6
  m_Component:
  - component: {fileID: 2762465969144247096}
  - component: {fileID: 8681011729929983045}
  m_Layer: 0
  m_Name: cave
  m_TagString: Untagged
  m_Icon: {fileID: 0}
  m_NavMeshLayer: 0
  m_StaticEditorFlags: 0
  m_IsActive: 1
--- !u!4 &2762465969144247096
Transform:
  m_ObjectHideFlags: 0
  m_CorrespondingSourceObject: {fileID: 0}
  m_PrefabInstance: {fileID: 0}
  m_PrefabAsset: {fileID: 0}
  m_GameObject: {fileID: 8670908757814743110}
  serializedVersion: 2
  m_LocalRotation: {x: 0, y: 0, z: 0, w: 1}
  m_LocalPosition: {x: 0, y: 0, z: 0}
  m_LocalScale: {x: 1, y: 1, z: 1}
  m_ConstrainProportionsScale: 0
  m_Children:
  - {fileID: 4546258483072712283}
  m_Father: {fileID: 0}
  m_LocalEulerAnglesHint: {x: 0, y: 0, z: 0}
--- !u!156049354 &8681011729929983045
Grid:
  m_ObjectHideFlags: 0
  m_CorrespondingSourceObject: {fileID: 0}
  m_PrefabInstance: {fileID: 0}
  m_PrefabAsset: {fileID: 0}
  m_GameObject: {fileID: 8670908757814743110}
  m_Enabled: 1
  m_CellSize: {x: 1, y: 1, z: 0}
  m_CellGap: {x: 0, y: 0, z: 0}
  m_CellLayout: 0
  m_CellSwizzle: 0
--- !u!114 &3421432830991430787
MonoBehaviour:
  m_ObjectHideFlags: 0
  m_CorrespondingSourceObject: {fileID: 0}
  m_PrefabInstance: {fileID: 0}
  m_PrefabAsset: {fileID: 0}
  m_GameObject: {fileID: 0}
  m_Enabled: 1
  m_EditorHideFlags: 0
  m_Script: {fileID: 12395, guid: 0000000000000000e000000000000000, type: 0}
  m_Name: Palette Settings
  m_EditorClassIdentifier: 
  cellSizing: 0
  m_TransparencySortMode: 0
  m_TransparencySortAxis: {x: 0, y: 0, z: 1}
